Praktikum 6 Anreg
…
Data

dt_raw <- read_xlsx("C:\\Users\\najwe\\OneDrive\\Dokumen\\SEMESTER 4\\ANREG\\Data Prak Anreg.xlsx", sheet="Data Gabungan Anreg")

# Rename kolom
colnames(dt_raw) <- c("Provinsi", "PBP", "IDL", "IKU", "IKA", "SL", "PBS", "TPR")

dt_raw

## # A tibble: 38 × 8
##    Provinsi               PBP   IDL   IKU   IKA    SL   PBS   TPR
##    <chr>                <dbl> <dbl> <dbl> <dbl> <dbl> <dbl> <dbl>
##  1 Aceh                   0.6  24.8  90.9  61.3  78.8  29.4  28.3
##  2 Sumatera Utara         0.5  41.0  90.9  60.3  84.2  18.9  26.2
##  3 Sumatera Barat         0.4  39.1  90.5  57.0  71.0  23.6  30.1
##  4 Riau                   0.2  45.0  90.9  50.8  84.6  13.6  27.4
##  5 Jambi                  0.5  53.0  90.6  46.1  83.0  13.5  27.9
##  6 Sumatera Selatan       0.3  54.3  87.8  58.2  80.5  20.3  30.3
##  7 Bengkulu               1.1  71.4  92.5  49.0  80.3  20.2  31.5
##  8 Lampung                0.8  73.8  88.0  55.4  84.6  14.9  33.8
##  9 Kep. Bangka Belitung   0.4  72.5  90.2  57.4  93.2  20.6  26.3
## 10 Kepulauan Riau         0.9  70.8  90.1  54.9  91.1  16.8  24.7
## # ℹ 28 more rows
…
